digraph Region_18 {
	graph [ nslimit = "1000.0",
	orientation = landscape,
		center = true,
	page = "8.5,11",
	compound=true,
	size = "10,7.5" ] ;
"Op_37" [ fontname = "Helvetica" shape = box, label = " LOOPSTART C=0x4094BB=for.body6.lr.ph HyIns=LOADB,
37, ASAP=0, ALAP=0"]
"Op_0" [ fontname = "Helvetica" shape = box, label = " phi  BB=for.body6 HyIns=SELECT,
0, ASAP=2, ALAP=2"]
"Op_1" [ fontname = "Helvetica" shape = box, label = " add add BB=for.body6 HyIns=ADD,
1, ASAP=3, ALAP=3"]
"Op_3" [ fontname = "Helvetica" shape = box, label = " add add33 BB=for.body6 HyIns=ADD,
3, ASAP=5, ALAP=5"]
"Op_2" [ fontname = "Helvetica" shape = box, label = " add add23 BB=for.body6 HyIns=ADD,
2, ASAP=4, ALAP=4"]
"Op_4" [ fontname = "Helvetica" shape = box, label = " add add43 BB=for.body6 HyIns=ADD,
4, ASAP=6, ALAP=6"]
"Op_5" [ fontname = "Helvetica" shape = box, label = " OutLoopSTORE C=0x-1 C=0x-1BB=for.body6 HyIns=STORE,
5, ASAP=7, ALAP=7"]
"Op_6" [ fontname = "Helvetica" shape = box, label = " phi k.079 BB=for.body6 HyIns=SELECT,
6, ASAP=2, ALAP=4"]
"Op_7" [ fontname = "Helvetica" shape = box, label = " add inc  C=0x1BB=for.body6 HyIns=ADD,
7, ASAP=3, ALAP=5"]
"Op_8" [ fontname = "Helvetica" shape = box, label = " icmp exitcond BB=for.body6 HyIns=CMP,
8, ASAP=4, ALAP=6"]
"Op_9" [ fontname = "Helvetica" shape = box, label = " OutLoopLOAD C=0x-1 C=0x-1BB=for.body6 HyIns=LOAD,
9, ASAP=0, ALAP=5"]
"Op_15" [ fontname = "Helvetica" shape = box, label = " load  BB=for.body6 HyIns=LOAD,
15, ASAP=0, ALAP=4"]
"Op_16" [ fontname = "Helvetica" shape = box, label = " mul mul42 BB=for.body6 HyIns=MUL,
16, ASAP=1, ALAP=5"]
"Op_19" [ fontname = "Helvetica" shape = box, label = " load  BB=for.body6 HyIns=LOAD,
19, ASAP=0, ALAP=4"]
"Op_22" [ fontname = "Helvetica" shape = box, label = " load  BB=for.body6 HyIns=LOAD,
22, ASAP=0, ALAP=3"]
"Op_23" [ fontname = "Helvetica" shape = box, label = " mul mul32 BB=for.body6 HyIns=MUL,
23, ASAP=1, ALAP=4"]
"Op_25" [ fontname = "Helvetica" shape = box, label = " load  BB=for.body6 HyIns=LOAD,
25, ASAP=0, ALAP=3"]
"Op_28" [ fontname = "Helvetica" shape = box, label = " load  BB=for.body6 HyIns=LOAD,
28, ASAP=0, ALAP=2"]
"Op_29" [ fontname = "Helvetica" shape = box, label = " mul mul22 BB=for.body6 HyIns=MUL,
29, ASAP=1, ALAP=3"]
"Op_31" [ fontname = "Helvetica" shape = box, label = " load  BB=for.body6 HyIns=LOAD,
31, ASAP=0, ALAP=2"]
"Op_33" [ fontname = "Helvetica" shape = box, label = " load  BB=for.body6 HyIns=LOAD,
33, ASAP=0, ALAP=1"]
"Op_34" [ fontname = "Helvetica" shape = box, label = " mul mul13 BB=for.body6 HyIns=MUL,
34, ASAP=1, ALAP=2"]
"Op_36" [ fontname = "Helvetica" shape = box, label = " load  BB=for.body6 HyIns=LOAD,
36, ASAP=0, ALAP=1"]
"Op_38" [ fontname = "Helvetica" shape = box, label = " OutLoopLOAD C=0x-1 C=0x-1BB=for.body6 HyIns=LOAD,
38, ASAP=0, ALAP=0"]
"Op_39" [ fontname = "Helvetica" shape = box, label = " CMERGEBB=for.body6,mutex={40,} HyIns=CMERGE,
39, ASAP=1, ALAP=1"]
"Op_40" [ fontname = "Helvetica" shape = box, label = " CMERGEBB=for.body6,mutex={39,} HyIns=CMERGE,
40, ASAP=7, ALAP=7"]
"Op_41" [ fontname = "Helvetica" shape = box, label = " CMERGE C=0x0BB=for.body6 HyIns=CMERGE,
41, ASAP=1, ALAP=3"]
"Op_0" -> "Op_1" [style = bold, color = black];
"Op_1" -> "Op_2" [style = bold, color = black];
"Op_2" -> "Op_3" [style = bold, color = black];
"Op_3" -> "Op_4" [style = bold, color = black];
"Op_4" -> "Op_5" [style = bold, color = black];
"Op_4" -> "Op_40" [style = bold, color = black];
"Op_6" -> "Op_7" [style = bold, color = black];
"Op_7" -> "Op_8" [style = bold, color = black];
"Op_7" -> "Op_42" [style = bold, color = black];
"Op_8" -> "Op_40" [style = bold, color = red];
"Op_8" -> "Op_42" [style = bold, color = red];
"Op_9" -> "Op_8" [style = bold, color = black];
"Op_15" -> "Op_16" [style = bold, color = black];
"Op_16" -> "Op_4" [style = bold, color = black];
"Op_19" -> "Op_16" [style = bold, color = black];
"Op_22" -> "Op_23" [style = bold, color = black];
"Op_23" -> "Op_3" [style = bold, color = black];
"Op_25" -> "Op_23" [style = bold, color = black];
"Op_28" -> "Op_29" [style = bold, color = black];
"Op_29" -> "Op_2" [style = bold, color = black];
"Op_31" -> "Op_29" [style = bold, color = black];
"Op_33" -> "Op_34" [style = bold, color = black];
"Op_34" -> "Op_1" [style = bold, color = black];
"Op_36" -> "Op_34" [style = bold, color = black];
"Op_37" -> "Op_39" [style = bold, color = blue];
"Op_37" -> "Op_41" [style = bold, color = blue];
"Op_38" -> "Op_39" [style = bold, color = black];
"Op_39" -> "Op_0" [style = bold, color = black];
"Op_40" -> "Op_0" [style = dashed, color = black];
"Op_41" -> "Op_6" [style = bold, color = black];
}
