digraph Region_18 {
	graph [ nslimit = "1000.0",
	orientation = landscape,
		center = true,
	page = "8.5,11",
	compound=true,
	size = "10,7.5" ] ;
"Op_20" [ fontname = "Helvetica" shape = box, label = " LOOPSTART C=0x4094BB=for.body.lr.ph HyIns=LOADB,
20, ASAP=0, ALAP=0"]
"Op_1" [ fontname = "Helvetica" shape = box, label = " add inc  C=0x1BB=for.body HyIns=ADD,
1, ASAP=3, ALAP=7"]
"Op_2" [ fontname = "Helvetica" shape = box, label = " OutLoopSTORE C=0x-1 C=0x-1BB=for.body HyIns=STORE,
2, ASAP=4, ALAP=9"]
"Op_3" [ fontname = "Helvetica" shape = box, label = " icmp cmp BB=for.body HyIns=CLT,
3, ASAP=4, ALAP=8"]
"Op_4" [ fontname = "Helvetica" shape = box, label = " OutLoopLOAD C=0x-1 C=0x-1BB=for.body HyIns=LOAD,
4, ASAP=0, ALAP=7"]
"Op_6" [ fontname = "Helvetica" shape = box, label = " getelementptr arrayidx8  C=0xffffffff C=0xffffffffBB=for.body HyIns=ADD,
6, ASAP=3, ALAP=8"]
"Op_0" [ fontname = "Helvetica" shape = box, label = " phi storemerge11 BB=for.body HyIns=SELECT,
0, ASAP=2, ALAP=2"]
"Op_7" [ fontname = "Helvetica" shape = box, label = " store  BB=for.body HyIns=STORE,
7, ASAP=9, ALAP=9"]
"Op_8" [ fontname = "Helvetica" shape = box, label = " add add2  C=0xbBB=for.body HyIns=ADD,
8, ASAP=3, ALAP=3"]
"Op_9" [ fontname = "Helvetica" shape = box, label = " getelementptr arrayidx3  C=0xffffffff C=0xffffffffBB=for.body HyIns=ADD,
9, ASAP=4, ALAP=4"]
"Op_10" [ fontname = "Helvetica" shape = box, label = " load  BB=for.body HyIns=LOAD,
10, ASAP=5, ALAP=5"]
"Op_11" [ fontname = "Helvetica" shape = box, label = " shl mul4  C=0x1BB=for.body HyIns=LS,
11, ASAP=6, ALAP=6"]
"Op_12" [ fontname = "Helvetica" shape = box, label = " add add5 BB=for.body HyIns=ADD,
12, ASAP=7, ALAP=7"]
"Op_13" [ fontname = "Helvetica" shape = box, label = " mul mul6 BB=for.body HyIns=MUL,
13, ASAP=8, ALAP=8"]
"Op_14" [ fontname = "Helvetica" shape = box, label = " add add  C=0x9BB=for.body HyIns=ADD,
14, ASAP=3, ALAP=3"]
"Op_15" [ fontname = "Helvetica" shape = box, label = " getelementptr arrayidx1  C=0xffffffff C=0xffffffffBB=for.body HyIns=ADD,
15, ASAP=4, ALAP=4"]
"Op_16" [ fontname = "Helvetica" shape = box, label = " load  BB=for.body HyIns=LOAD,
16, ASAP=5, ALAP=5"]
"Op_17" [ fontname = "Helvetica" shape = box, label = " mul mul  C=0x3BB=for.body HyIns=MUL,
17, ASAP=6, ALAP=6"]
"Op_18" [ fontname = "Helvetica" shape = box, label = " getelementptr arrayidx  C=0xffffffff C=0xffffffffBB=for.body HyIns=ADD,
18, ASAP=3, ALAP=6"]
"Op_19" [ fontname = "Helvetica" shape = box, label = " load  BB=for.body HyIns=LOAD,
19, ASAP=4, ALAP=7"]
"Op_21" [ fontname = "Helvetica" shape = box, label = " CMERGE C=0x0BB=for.body HyIns=CMERGE,
21, ASAP=1, ALAP=1"]
"Op_22" [ fontname = "Helvetica" shape = box, label = " CMERGEBB=for.body HyIns=CMERGE,
22, ASAP=5, ALAP=9"]
"Op_0" -> "Op_1" [style = bold, color = black];
"Op_0" -> "Op_6" [style = bold, color = black];
"Op_0" -> "Op_8" [style = bold, color = black];
"Op_0" -> "Op_14" [style = bold, color = black];
"Op_0" -> "Op_18" [style = bold, color = black];
"Op_1" -> "Op_2" [style = bold, color = black];
"Op_1" -> "Op_3" [style = bold, color = black];
"Op_1" -> "Op_22" [style = bold, color = black];
"Op_3" -> "Op_22" [style = bold, color = blue];
"Op_4" -> "Op_3" [style = bold, color = black];
"Op_6" -> "Op_7" [style = bold, color = black];
"Op_8" -> "Op_9" [style = bold, color = black];
"Op_9" -> "Op_10" [style = bold, color = black];
"Op_10" -> "Op_11" [style = bold, color = black];
"Op_11" -> "Op_12" [style = bold, color = black];
"Op_12" -> "Op_13" [style = bold, color = black];
"Op_13" -> "Op_7" [style = bold, color = black];
"Op_14" -> "Op_15" [style = bold, color = black];
"Op_15" -> "Op_16" [style = bold, color = black];
"Op_16" -> "Op_17" [style = bold, color = black];
"Op_17" -> "Op_12" [style = bold, color = black];
"Op_18" -> "Op_19" [style = bold, color = black];
"Op_19" -> "Op_13" [style = bold, color = black];
"Op_20" -> "Op_21" [style = bold, color = blue];
"Op_21" -> "Op_0" [style = bold, color = black];
}
