digraph Region_18 {
	graph [ nslimit = "1000.0",
	orientation = landscape,
		center = true,
	page = "8.5,11",
	compound=true,
	size = "10,7.5" ] ;
"Op_7" [ fontname = "Helvetica" shape = box, label = " store  BB=for.body HyIns=STORE,
7, ASAP=8, ALAP=8"]
"Op_10" [ fontname = "Helvetica" shape = box, label = " load  BB=for.body HyIns=LOAD,
10, ASAP=0, ALAP=2"]
"Op_11" [ fontname = "Helvetica" shape = box, label = " add add24 BB=for.body HyIns=ADD,
11, ASAP=2, ALAP=3"]
"Op_12" [ fontname = "Helvetica" shape = box, label = " shl mul25  C=0x1BB=for.body HyIns=LS,
12, ASAP=3, ALAP=4"]
"Op_13" [ fontname = "Helvetica" shape = box, label = " add add26 BB=for.body HyIns=ADD,
13, ASAP=5, ALAP=5"]
"Op_14" [ fontname = "Helvetica" shape = box, label = " shl mul27  C=0x1BB=for.body HyIns=LS,
14, ASAP=6, ALAP=6"]
"Op_15" [ fontname = "Helvetica" shape = box, label = " add add28 BB=for.body HyIns=ADD,
15, ASAP=7, ALAP=7"]
"Op_18" [ fontname = "Helvetica" shape = box, label = " load  BB=for.body HyIns=LOAD,
18, ASAP=0, ALAP=1"]
"Op_19" [ fontname = "Helvetica" shape = box, label = " add add22 BB=for.body HyIns=ADD,
19, ASAP=1, ALAP=2"]
"Op_22" [ fontname = "Helvetica" shape = box, label = " load  BB=for.body HyIns=LOAD,
22, ASAP=0, ALAP=1"]
"Op_25" [ fontname = "Helvetica" shape = box, label = " load  BB=for.body HyIns=LOAD,
25, ASAP=0, ALAP=0"]
"Op_26" [ fontname = "Helvetica" shape = box, label = " mul mul11  C=0x3BB=for.body HyIns=MUL,
26, ASAP=1, ALAP=1"]
"Op_27" [ fontname = "Helvetica" shape = box, label = " add add12 BB=for.body HyIns=ADD,
27, ASAP=2, ALAP=2"]
"Op_28" [ fontname = "Helvetica" shape = box, label = " mul mul13  C=0x3BB=for.body HyIns=MUL,
28, ASAP=3, ALAP=3"]
"Op_29" [ fontname = "Helvetica" shape = box, label = " add add14 BB=for.body HyIns=ADD,
29, ASAP=4, ALAP=4"]
"Op_32" [ fontname = "Helvetica" shape = box, label = " load  BB=for.body HyIns=LOAD,
32, ASAP=0, ALAP=1"]
"Op_35" [ fontname = "Helvetica" shape = box, label = " load  BB=for.body HyIns=LOAD,
35, ASAP=0, ALAP=3"]
"Op_37" [ fontname = "Helvetica" shape = box, label = " load  BB=for.body HyIns=LOAD,
37, ASAP=0, ALAP=2"]
"Op_38" [ fontname = "Helvetica" shape = box, label = " mul mul  C=0x3BB=for.body HyIns=MUL,
38, ASAP=1, ALAP=3"]
"Op_39" [ fontname = "Helvetica" shape = box, label = " add add BB=for.body HyIns=ADD,
39, ASAP=2, ALAP=4"]
"Op_40" [ fontname = "Helvetica" shape = box, label = " mul mul3  C=0x3BB=for.body HyIns=MUL,
40, ASAP=3, ALAP=5"]
"Op_41" [ fontname = "Helvetica" shape = box, label = " add add4 BB=for.body HyIns=ADD,
41, ASAP=4, ALAP=6"]
"Op_43" [ fontname = "Helvetica" shape = box, label = " load  BB=for.body HyIns=LOAD,
43, ASAP=0, ALAP=3"]
"Op_45" [ fontname = "Helvetica" shape = box, label = " load  BB=for.body HyIns=LOAD,
45, ASAP=0, ALAP=5"]
"Op_10" -> "Op_11" [style = bold, color = black];
"Op_11" -> "Op_12" [style = bold, color = black];
"Op_12" -> "Op_13" [style = bold, color = black];
"Op_13" -> "Op_14" [style = bold, color = black];
"Op_14" -> "Op_15" [style = bold, color = black];
"Op_15" -> "Op_7" [style = bold, color = black];
"Op_18" -> "Op_19" [style = bold, color = black];
"Op_19" -> "Op_11" [style = bold, color = black];
"Op_22" -> "Op_19" [style = bold, color = black];
"Op_25" -> "Op_26" [style = bold, color = black];
"Op_26" -> "Op_27" [style = bold, color = black];
"Op_27" -> "Op_28" [style = bold, color = black];
"Op_28" -> "Op_29" [style = bold, color = black];
"Op_29" -> "Op_13" [style = bold, color = black];
"Op_32" -> "Op_27" [style = bold, color = black];
"Op_35" -> "Op_29" [style = bold, color = black];
"Op_37" -> "Op_38" [style = bold, color = black];
"Op_38" -> "Op_39" [style = bold, color = black];
"Op_39" -> "Op_40" [style = bold, color = black];
"Op_40" -> "Op_41" [style = bold, color = black];
"Op_41" -> "Op_15" [style = bold, color = black];
"Op_43" -> "Op_39" [style = bold, color = black];
"Op_45" -> "Op_41" [style = bold, color = black];
}
