digraph Region_18 {
	graph [ nslimit = "1000.0",
	orientation = landscape,
		center = true,
	page = "8.5,11",
	compound=true,
	size = "10,7.5" ] ;
"Op_12" [ fontname = "Helvetica" shape = box, label = " LOOPSTART C=0x4094BB=for.body.lr.ph HyIns=LOADB,
12, ASAP=0, ALAP=0"]
"Op_1" [ fontname = "Helvetica" shape = box, label = " sub sub2 BB=for.body HyIns=SUB,
1, ASAP=6, ALAP=6"]
"Op_2" [ fontname = "Helvetica" shape = box, label = " store  BB=for.body HyIns=STORE,
2, ASAP=7, ALAP=7"]
"Op_3" [ fontname = "Helvetica" shape = box, label = " phi storemerge6 BB=for.body HyIns=SELECT,
3, ASAP=2, ALAP=2"]
"Op_4" [ fontname = "Helvetica" shape = box, label = " getelementptr arrayidx3  C=0xffffffff C=0xffffffffBB=for.body HyIns=ADD,
4, ASAP=3, ALAP=6"]
"Op_5" [ fontname = "Helvetica" shape = box, label = " add add  C=0x1BB=for.body HyIns=ADD,
5, ASAP=3, ALAP=3"]
"Op_6" [ fontname = "Helvetica" shape = box, label = " OutLoopSTORE C=0x-1 C=0x-1BB=for.body HyIns=STORE,
6, ASAP=4, ALAP=7"]
"Op_0" [ fontname = "Helvetica" shape = box, label = " phi  BB=for.body HyIns=SELECT,
0, ASAP=2, ALAP=5"]
"Op_7" [ fontname = "Helvetica" shape = box, label = " icmp cmp BB=for.body HyIns=CLT,
7, ASAP=4, ALAP=6"]
"Op_8" [ fontname = "Helvetica" shape = box, label = " OutLoopLOAD C=0x-1 C=0x-1BB=for.body HyIns=LOAD,
8, ASAP=0, ALAP=5"]
"Op_10" [ fontname = "Helvetica" shape = box, label = " getelementptr arrayidx  C=0xffffffff C=0xffffffffBB=for.body HyIns=ADD,
10, ASAP=4, ALAP=4"]
"Op_11" [ fontname = "Helvetica" shape = box, label = " load  BB=for.body HyIns=LOAD,
11, ASAP=5, ALAP=5"]
"Op_13" [ fontname = "Helvetica" shape = box, label = " OutLoopLOAD C=0x-1 C=0x-1BB=for.body HyIns=LOAD,
13, ASAP=0, ALAP=3"]
"Op_14" [ fontname = "Helvetica" shape = box, label = " CMERGEBB=for.body,mutex={15,} HyIns=CMERGE,
14, ASAP=1, ALAP=4"]
"Op_15" [ fontname = "Helvetica" shape = box, label = " CMERGEBB=for.body,mutex={14,} HyIns=CMERGE,
15, ASAP=6, ALAP=7"]
"Op_16" [ fontname = "Helvetica" shape = box, label = " CMERGE C=0x0BB=for.body HyIns=CMERGE,
16, ASAP=1, ALAP=1"]
"Op_17" [ fontname = "Helvetica" shape = box, label = " CMERGEBB=for.body HyIns=CMERGE,
17, ASAP=5, ALAP=7"]
"Op_0" -> "Op_1" [style = bold, color = black];
"Op_1" -> "Op_2" [style = bold, color = black];
"Op_3" -> "Op_4" [style = bold, color = black];
"Op_3" -> "Op_5" [style = bold, color = black];
"Op_4" -> "Op_2" [style = bold, color = black];
"Op_5" -> "Op_6" [style = bold, color = black];
"Op_5" -> "Op_7" [style = bold, color = black];
"Op_5" -> "Op_10" [style = bold, color = black];
"Op_5" -> "Op_17" [style = bold, color = black];
"Op_7" -> "Op_15" [style = bold, color = blue];
"Op_7" -> "Op_17" [style = bold, color = blue];
"Op_8" -> "Op_7" [style = bold, color = black];
"Op_10" -> "Op_11" [style = bold, color = black];
"Op_11" -> "Op_1" [style = bold, color = black];
"Op_11" -> "Op_15" [style = bold, color = black];
"Op_12" -> "Op_14" [style = bold, color = blue];
"Op_12" -> "Op_16" [style = bold, color = blue];
"Op_13" -> "Op_14" [style = bold, color = black];
"Op_14" -> "Op_0" [style = bold, color = black];
"Op_15" -> "Op_0" [style = dashed, color = black];
"Op_16" -> "Op_3" [style = bold, color = black];
}
