digraph Region_18 {
	graph [ nslimit = "1000.0",
	orientation = landscape,
		center = true,
	page = "8.5,11",
	compound=true,
	size = "10,7.5" ] ;
"Op_35" [ fontname = "Helvetica" shape = box, label = " LOOPSTART C=0x4094BB=for.body.lr.ph HyIns=LOADB,
35, ASAP=0, ALAP=0"]
"Op_1" [ fontname = "Helvetica" shape = box, label = " add inc5  C=0x3BB=for.body HyIns=ADD,
1, ASAP=3, ALAP=9"]
"Op_2" [ fontname = "Helvetica" shape = box, label = " OutLoopSTORE C=0x-1 C=0x-1BB=for.body HyIns=STORE,
2, ASAP=4, ALAP=10"]
"Op_3" [ fontname = "Helvetica" shape = box, label = " add inc2  C=0x2BB=for.body HyIns=ADD,
3, ASAP=3, ALAP=5"]
"Op_4" [ fontname = "Helvetica" shape = box, label = " getelementptr arrayidx6  C=0xffffffff C=0xffffffffBB=for.body HyIns=ADD,
4, ASAP=4, ALAP=6"]
"Op_5" [ fontname = "Helvetica" shape = box, label = " load  BB=for.body HyIns=LOAD,
5, ASAP=5, ALAP=7"]
"Op_0" [ fontname = "Helvetica" shape = box, label = " phi inc518 BB=for.body HyIns=SELECT,
0, ASAP=2, ALAP=2"]
"Op_6" [ fontname = "Helvetica" shape = box, label = " shl shl7 BB=for.body HyIns=LS,
6, ASAP=6, ALAP=8"]
"Op_7" [ fontname = "Helvetica" shape = box, label = " OutLoopLOAD C=0x-1 C=0x-1BB=for.body HyIns=LOAD,
7, ASAP=0, ALAP=5"]
"Op_8" [ fontname = "Helvetica" shape = box, label = " OutLoopSTORE C=0x-1 C=0x-1BB=for.body HyIns=STORE,
8, ASAP=7, ALAP=10"]
"Op_9" [ fontname = "Helvetica" shape = box, label = " or or10 BB=for.body HyIns=OR,
9, ASAP=9, ALAP=9"]
"Op_10" [ fontname = "Helvetica" shape = box, label = " store  BB=for.body HyIns=STORE,
10, ASAP=10, ALAP=10"]
"Op_11" [ fontname = "Helvetica" shape = box, label = " getelementptr arrayidx  C=0xffffffff C=0xffffffffBB=for.body HyIns=ADD,
11, ASAP=3, ALAP=4"]
"Op_12" [ fontname = "Helvetica" shape = box, label = " load  BB=for.body HyIns=LOAD,
12, ASAP=4, ALAP=5"]
"Op_13" [ fontname = "Helvetica" shape = box, label = " shl shl BB=for.body HyIns=LS,
13, ASAP=5, ALAP=6"]
"Op_14" [ fontname = "Helvetica" shape = box, label = " OutLoopSTORE C=0x-1 C=0x-1BB=for.body HyIns=STORE,
14, ASAP=6, ALAP=10"]
"Op_15" [ fontname = "Helvetica" shape = box, label = " shl shl8  C=0x10BB=for.body HyIns=LS,
15, ASAP=6, ALAP=7"]
"Op_16" [ fontname = "Helvetica" shape = box, label = " or or BB=for.body HyIns=OR,
16, ASAP=8, ALAP=8"]
"Op_29" [ fontname = "Helvetica" shape = box, label = " phi storemerge15 BB=for.body HyIns=SELECT,
29, ASAP=2, ALAP=7"]
"Op_17" [ fontname = "Helvetica" shape = box, label = " add inc  C=0x1BB=for.body HyIns=ADD,
17, ASAP=3, ALAP=3"]
"Op_18" [ fontname = "Helvetica" shape = box, label = " getelementptr arrayidx3  C=0xffffffff C=0xffffffffBB=for.body HyIns=ADD,
18, ASAP=4, ALAP=4"]
"Op_19" [ fontname = "Helvetica" shape = box, label = " load  BB=for.body HyIns=LOAD,
19, ASAP=5, ALAP=5"]
"Op_20" [ fontname = "Helvetica" shape = box, label = " shl shl4 BB=for.body HyIns=LS,
20, ASAP=6, ALAP=6"]
"Op_21" [ fontname = "Helvetica" shape = box, label = " OutLoopSTORE C=0x-1 C=0x-1BB=for.body HyIns=STORE,
21, ASAP=7, ALAP=10"]
"Op_22" [ fontname = "Helvetica" shape = box, label = " shl shl9  C=0x8BB=for.body HyIns=LS,
22, ASAP=7, ALAP=7"]
"Op_23" [ fontname = "Helvetica" shape = box, label = " phi inc1116 BB=for.body HyIns=SELECT,
23, ASAP=2, ALAP=6"]
"Op_24" [ fontname = "Helvetica" shape = box, label = " select spec.select  C=0x0BB=for.body HyIns=SELECT,
24, ASAP=4, ALAP=8"]
"Op_25" [ fontname = "Helvetica" shape = box, label = " getelementptr arrayidx12  C=0xffffffff C=0xffffffffBB=for.body HyIns=ADD,
25, ASAP=5, ALAP=9"]
"Op_26" [ fontname = "Helvetica" shape = box, label = " add inc11  C=0x1BB=for.body HyIns=ADD,
26, ASAP=5, ALAP=9"]
"Op_27" [ fontname = "Helvetica" shape = box, label = " OutLoopSTORE C=0x-1 C=0x-1BB=for.body HyIns=STORE,
27, ASAP=6, ALAP=10"]
"Op_28" [ fontname = "Helvetica" shape = box, label = " icmp cmp1  C=0xffBB=for.body HyIns=CGT,
28, ASAP=3, ALAP=7"]
"Op_30" [ fontname = "Helvetica" shape = box, label = " add inc13  C=0x1BB=for.body HyIns=ADD,
30, ASAP=3, ALAP=8"]
"Op_31" [ fontname = "Helvetica" shape = box, label = " OutLoopSTORE C=0x-1 C=0x-1BB=for.body HyIns=STORE,
31, ASAP=4, ALAP=10"]
"Op_32" [ fontname = "Helvetica" shape = box, label = " icmp cmp BB=for.body HyIns=CLT,
32, ASAP=4, ALAP=9"]
"Op_33" [ fontname = "Helvetica" shape = box, label = " OutLoopLOAD C=0x-1 C=0x-1BB=for.body HyIns=LOAD,
33, ASAP=0, ALAP=8"]
"Op_36" [ fontname = "Helvetica" shape = box, label = " OutLoopLOAD C=0x-1 C=0x-1BB=for.body HyIns=LOAD,
36, ASAP=0, ALAP=0"]
"Op_37" [ fontname = "Helvetica" shape = box, label = " CMERGEBB=for.body,mutex={38,} HyIns=CMERGE,
37, ASAP=1, ALAP=1"]
"Op_38" [ fontname = "Helvetica" shape = box, label = " CMERGEBB=for.body,mutex={37,} HyIns=CMERGE,
38, ASAP=5, ALAP=10"]
"Op_39" [ fontname = "Helvetica" shape = box, label = " OutLoopLOAD C=0x-1 C=0x-1BB=for.body HyIns=LOAD,
39, ASAP=0, ALAP=4"]
"Op_40" [ fontname = "Helvetica" shape = box, label = " CMERGEBB=for.body,mutex={41,} HyIns=CMERGE,
40, ASAP=1, ALAP=5"]
"Op_41" [ fontname = "Helvetica" shape = box, label = " CMERGEBB=for.body,mutex={40,} HyIns=CMERGE,
41, ASAP=6, ALAP=10"]
"Op_42" [ fontname = "Helvetica" shape = box, label = " CMERGE C=0x0BB=for.body HyIns=CMERGE,
42, ASAP=1, ALAP=6"]
"Op_43" [ fontname = "Helvetica" shape = box, label = " CMERGEBB=for.body HyIns=CMERGE,
43, ASAP=5, ALAP=10"]
"Op_0" -> "Op_1" [style = bold, color = black];
"Op_0" -> "Op_3" [style = bold, color = black];
"Op_0" -> "Op_11" [style = bold, color = black];
"Op_0" -> "Op_17" [style = bold, color = black];
"Op_1" -> "Op_2" [style = bold, color = black];
"Op_1" -> "Op_38" [style = bold, color = black];
"Op_3" -> "Op_4" [style = bold, color = black];
"Op_4" -> "Op_5" [style = bold, color = black];
"Op_5" -> "Op_6" [style = bold, color = black];
"Op_6" -> "Op_8" [style = bold, color = black];
"Op_6" -> "Op_9" [style = bold, color = black];
"Op_7" -> "Op_6" [style = bold, color = black];
"Op_7" -> "Op_13" [style = bold, color = black];
"Op_7" -> "Op_20" [style = bold, color = black];
"Op_9" -> "Op_10" [style = bold, color = black];
"Op_11" -> "Op_12" [style = bold, color = black];
"Op_12" -> "Op_13" [style = bold, color = black];
"Op_13" -> "Op_14" [style = bold, color = black];
"Op_13" -> "Op_15" [style = bold, color = black];
"Op_15" -> "Op_16" [style = bold, color = black];
"Op_16" -> "Op_9" [style = bold, color = black];
"Op_17" -> "Op_18" [style = bold, color = black];
"Op_18" -> "Op_19" [style = bold, color = black];
"Op_19" -> "Op_20" [style = bold, color = black];
"Op_20" -> "Op_21" [style = bold, color = black];
"Op_20" -> "Op_22" [style = bold, color = black];
"Op_22" -> "Op_16" [style = bold, color = black];
"Op_23" -> "Op_24" [style = bold, color = black];
"Op_23" -> "Op_28" [style = bold, color = black];
"Op_24" -> "Op_25" [style = bold, color = black];
"Op_24" -> "Op_26" [style = bold, color = black];
"Op_25" -> "Op_10" [style = bold, color = black];
"Op_26" -> "Op_27" [style = bold, color = black];
"Op_26" -> "Op_41" [style = bold, color = black];
"Op_28" -> "Op_24" [style = bold, color = black];
"Op_29" -> "Op_30" [style = bold, color = black];
"Op_30" -> "Op_31" [style = bold, color = black];
"Op_30" -> "Op_32" [style = bold, color = black];
"Op_30" -> "Op_43" [style = bold, color = black];
"Op_32" -> "Op_38" [style = bold, color = blue];
"Op_32" -> "Op_41" [style = bold, color = blue];
"Op_32" -> "Op_43" [style = bold, color = blue];
"Op_33" -> "Op_32" [style = bold, color = black];
"Op_35" -> "Op_37" [style = bold, color = blue];
"Op_35" -> "Op_40" [style = bold, color = blue];
"Op_35" -> "Op_42" [style = bold, color = blue];
"Op_36" -> "Op_37" [style = bold, color = black];
"Op_37" -> "Op_0" [style = bold, color = black];
"Op_38" -> "Op_0" [style = dashed, color = black];
"Op_39" -> "Op_40" [style = bold, color = black];
"Op_40" -> "Op_23" [style = bold, color = black];
"Op_41" -> "Op_23" [style = dashed, color = black];
"Op_42" -> "Op_29" [style = bold, color = black];
}
