digraph Region_18 {
	graph [ nslimit = "1000.0",
	orientation = landscape,
		center = true,
	page = "8.5,11",
	compound=true,
	size = "10,7.5" ] ;
"Op_4" [ fontname = "Helvetica" shape = box, label = " icmp cmp15 BB=if.then6 HyIns=CLT,
4, ASAP=4, ALAP=7"]
"Op_6" [ fontname = "Helvetica" shape = box, label = " icmp   C=0x0BB=if.then6 HyIns=CGT,
6, ASAP=2, ALAP=5"]
"Op_0" [ fontname = "Helvetica" shape = box, label = " add add13 BB=if.then6 HyIns=ADD,
0, ASAP=1, ALAP=4"]
"Op_1" [ fontname = "Helvetica" shape = box, label = " select cond  C=0x0BB=if.then6 HyIns=SELECT,
1, ASAP=3, ALAP=6"]
"Op_2" [ fontname = "Helvetica" shape = box, label = " select cond19 BB=if.then6 HyIns=SELECT,
2, ASAP=5, ALAP=8"]
"Op_33" [ fontname = "Helvetica" shape = box, label = " load  BB=for.body4 HyIns=LOAD,
33, ASAP=0, ALAP=1"]
"Op_32" [ fontname = "Helvetica" shape = box, label = " store  BB=for.inc.sink.split HyIns=STORE,
32, ASAP=12, ALAP=12"]
"Op_17" [ fontname = "Helvetica" shape = box, label = " load  BB=if.then HyIns=LOAD,
17, ASAP=0, ALAP=0"]
"Op_51" [ fontname = "Helvetica" shape = box, label = " CMERGEBB=if.then,mutex={52,53,} HyIns=CMERGE,
51, ASAP=9, ALAP=9"]
"Op_52" [ fontname = "Helvetica" shape = box, label = " CMERGEBB=if.then,mutex={51,53,} HyIns=CMERGE,
52, ASAP=6, ALAP=9"]
"Op_41" [ fontname = "Helvetica" shape = box, label = " xor   C=0x0BB=if.then HyIns=XOR,
41, ASAP=1, ALAP=8"]
"Op_1045" [ fontname = "Helvetica" shape = box, label = " SELECTPHIBB=if.then HyIns=SELECT,
1045, ASAP=10, ALAP=10"]
"Op_53" [ fontname = "Helvetica" shape = box, label = " CMERGEBB=if.else48,mutex={51,52,} HyIns=CMERGE,
53, ASAP=3, ALAP=10"]
"Op_42" [ fontname = "Helvetica" shape = box, label = " OutLoopLOAD C=0x-1 C=0x-1BB=if.else48 HyIns=LOADB,
42, ASAP=0, ALAP=7"]
"Op_44" [ fontname = "Helvetica" shape = box, label = " xor   C=0x0BB=if.else48 HyIns=XOR,
44, ASAP=1, ALAP=9"]
"Op_1046" [ fontname = "Helvetica" shape = box, label = " SELECTPHIBB=if.else48 HyIns=SELECT,
1046, ASAP=11, ALAP=11"]
"Op_3" [ fontname = "Helvetica" shape = box, label = " OutLoopLOAD C=0x-1 C=0x-1BB=if.else HyIns=LOAD,
3, ASAP=0, ALAP=6"]
"Op_18" [ fontname = "Helvetica" shape = box, label = " shl shl BB=if.else HyIns=LS,
18, ASAP=1, ALAP=1"]
"Op_20" [ fontname = "Helvetica" shape = box, label = " add add32 BB=if.else HyIns=ADD,
20, ASAP=2, ALAP=2"]
"Op_21" [ fontname = "Helvetica" shape = box, label = " add add33 BB=if.else HyIns=ADD,
21, ASAP=3, ALAP=3"]
"Op_23" [ fontname = "Helvetica" shape = box, label = " ashr shr BB=if.else HyIns=ARS,
23, ASAP=4, ALAP=4"]
"Op_24" [ fontname = "Helvetica" shape = box, label = " select cond38  C=0x0BB=if.else HyIns=SELECT,
24, ASAP=6, ALAP=6"]
"Op_25" [ fontname = "Helvetica" shape = box, label = " select cond43 BB=if.else HyIns=SELECT,
25, ASAP=8, ALAP=8"]
"Op_26" [ fontname = "Helvetica" shape = box, label = " icmp cmp39 BB=if.else HyIns=CLT,
26, ASAP=7, ALAP=7"]
"Op_27" [ fontname = "Helvetica" shape = box, label = " store  BB=if.else HyIns=STORE,
27, ASAP=7, ALAP=12"]
"Op_28" [ fontname = "Helvetica" shape = box, label = " icmp   C=0x0BB=if.else HyIns=CGT,
28, ASAP=5, ALAP=5"]
"Op_29" [ fontname = "Helvetica" shape = box, label = " store  BB=if.else HyIns=STORE,
29, ASAP=5, ALAP=12"]
"Op_19" [ fontname = "Helvetica" shape = box, label = " OutLoopLOAD C=0x-1 C=0x-1BB=if.else59 HyIns=LOAD,
19, ASAP=0, ALAP=0"]
"Op_22" [ fontname = "Helvetica" shape = box, label = " OutLoopLOAD C=0x-1 C=0x-1BB=if.else59 HyIns=LOAD,
22, ASAP=0, ALAP=2"]
"Op_34" [ fontname = "Helvetica" shape = box, label = " add add64 BB=if.else59 HyIns=ADD,
34, ASAP=1, ALAP=8"]
"Op_35" [ fontname = "Helvetica" shape = box, label = " ashr shr65 BB=if.else59 HyIns=ARS,
35, ASAP=2, ALAP=9"]
"Op_0" -> "Op_1" [style = bold, color = black];
"Op_0" -> "Op_6" [style = bold, color = black];
"Op_1" -> "Op_2" [style = bold, color = black];
"Op_1" -> "Op_4" [style = bold, color = black];
"Op_2" -> "Op_52" [style = bold, color = black];
"Op_3" -> "Op_2" [style = bold, color = black];
"Op_3" -> "Op_4" [style = bold, color = black];
"Op_3" -> "Op_25" [style = bold, color = black];
"Op_3" -> "Op_26" [style = bold, color = black];
"Op_4" -> "Op_2" [style = bold, color = black];
"Op_6" -> "Op_1" [style = bold, color = black];
"Op_17" -> "Op_18" [style = bold, color = black];
"Op_17" -> "Op_0" [style = bold, color = black];
"Op_18" -> "Op_20" [style = bold, color = black];
"Op_19" -> "Op_18" [style = bold, color = black];
"Op_19" -> "Op_23" [style = bold, color = black];
"Op_19" -> "Op_35" [style = bold, color = black];
"Op_20" -> "Op_21" [style = bold, color = black];
"Op_21" -> "Op_23" [style = bold, color = black];
"Op_22" -> "Op_21" [style = bold, color = black];
"Op_22" -> "Op_34" [style = bold, color = black];
"Op_23" -> "Op_24" [style = bold, color = black];
"Op_23" -> "Op_28" [style = bold, color = black];
"Op_23" -> "Op_29" [style = bold, color = black];
"Op_24" -> "Op_25" [style = bold, color = black];
"Op_24" -> "Op_26" [style = bold, color = black];
"Op_24" -> "Op_27" [style = bold, color = black];
"Op_25" -> "Op_51" [style = bold, color = black];
"Op_26" -> "Op_25" [style = bold, color = black];
"Op_28" -> "Op_24" [style = bold, color = black];
"Op_33" -> "Op_34" [style = bold, color = black];
"Op_33" -> "Op_20" [style = bold, color = black];
"Op_33" -> "Op_0" [style = bold, color = black];
"Op_34" -> "Op_35" [style = bold, color = black];
"Op_35" -> "Op_53" [style = bold, color = black];
"Op_41" -> "Op_27" [style = bold, color = red];
"Op_41" -> "Op_29" [style = bold, color = red];
"Op_41" -> "Op_51" [style = bold, color = red];
"Op_41" -> "Op_52" [style = bold, color = blue];
"Op_42" -> "Op_41" [style = bold, color = black];
"Op_42" -> "Op_44" [style = bold, color = black];
"Op_44" -> "Op_32" [style = bold, color = red];
"Op_44" -> "Op_53" [style = bold, color = red];
"Op_51" -> "Op_1045" [style = bold, color = black];
"Op_52" -> "Op_1045" [style = bold, color = black];
"Op_53" -> "Op_1046" [style = bold, color = black];
"Op_1045" -> "Op_1046" [style = bold, color = black];
"Op_1046" -> "Op_32" [style = bold, color = black];
}
